﻿###########################
# German SS Events
###########################

add_namespace = ss_event

###########################
# LSSAH Starting OOB player
country_event = {
	id = ss_event.665
	title = ss_event.665.t
	desc = ss_event.665.d
	
	picture = GFX_report_event_historical_SS
	
	is_triggered_only = yes
	
	mean_time_to_happen = {
		days = 1
	}
	
	option = {
		name = ss_event.665.a
		hidden_effect = {
			load_oob = "GER_LSSAH_I"
			set_country_flag = SS_LSSAH_I
		}
	}
}

# Starting SS Regiments
country_event = {
	id = ss_event.666
	title = ss_event.666.t
	desc = ss_event.666.d
	picture = GFX_report_event_historical_SS
	
	is_triggered_only = yes
	
	mean_time_to_happen = {
		days = 1
	}
	
	option = {
		name = ss_event.666.a
		hidden_effect = {
			load_oob = "GER_SS_Start"
			set_country_flag = SS_Start
		}
	}
}

# SS-Totenkopfverbände ss garrisons
country_event = {
	id = ss_event.667
	title = ss_event.667.t
	desc = ss_event.667.d
	picture = GFX_report_event_Totenkopf
	
	is_triggered_only = yes
	
	mean_time_to_happen = {
		days = 1
	}
	
	option = {
		name = ss_event.667.a
		hidden_effect = {
			load_oob = "GER_SS_TV"
			set_country_flag = SS_TV
		}
		create_corps_commander = {
			name = "Eicke, Theodor"
			picture = "Portrait_Germany_Theodor_Eicke.dds"
			traits = { Waffen_SS offensive_doctrine_CC }
			skill = 2
			id = 73
		}

	}
}
# SS-Verfügungstruppe combat division
country_event = {
	id = ss_event.668
	title = ss_event.668.t
	desc = ss_event.668.d
	picture = GFX_report_event_SSVT

	is_triggered_only = yes
	
	mean_time_to_happen = {
		days = 1
	}
	
	option = {
		name = ss_event.668.a
		hidden_effect = {
			load_oob = "GER_SS_VT"
			set_country_flag = SS_VT
		}
		ai_chance = { factor = 100 }
	}
}
# Schutzstaffel_divisions 1 
country_event = {
	id = ss_event.669
	title = ss_event.669.t
	desc = ss_event.669.d
	picture = GFX_report_event_Totenkopf

	is_triggered_only = yes
	
	mean_time_to_happen = {
		days = 1
	}
	
	option = {
		name = ss_event.669.a
		hidden_effect = {
			load_oob = "GER_Totenkopf_division"	#SS-Totenkopf Division expands
			#set_country_flag = 
		}
		ai_chance = { factor = 100 }
	}
	
}
# Schutzstaffel_divisions 2
country_event = {
	id = ss_event.670
	title = ss_event.670.t
	desc = ss_event.670.d
	picture = GFX_event_armor_producer

	is_triggered_only = yes
	
	mean_time_to_happen = {
		days = 1
	}
	
	option = {
		name = ss_event.670.a
		hidden_effect = {
			load_oob = "GER_LSSAH_division"	#Leibstandarte SS Adolf Hitler Expands
			#set_country_flag = 
		}
		ai_chance = { factor = 100 }
	}
	
}
# Schutzstaffel_divisions 3
country_event = {
	id = ss_event.671
	title = ss_event.671.t
	desc = ss_event.671.d
	picture = GFX_news_event_042

	is_triggered_only = yes
	
	mean_time_to_happen = {
		days = 1
	}
	
	option = {
		name = ss_event.671.a
		hidden_effect = {
			load_oob = "GER_Das_Reich_division"	#SS-Division (mot) Reich 
			#set_country_flag = 
		}
		ai_chance = { factor = 100 }
	}
	
}
# Schutzstaffel_divisions 4
country_event = {
	id = ss_event.672
	title = ss_event.672.t
	desc = ss_event.672.d
	picture = GFX_report_event_german_officers

	is_triggered_only = yes
	
	mean_time_to_happen = {
		days = 1
	}
	
	option = {
		name = ss_event.672.a
		hidden_effect = {
			load_oob = "GER_Polizei"	# Polizei Division
			#set_country_flag = 
		}
		ai_chance = { factor = 100 }
	}
}
# Schutzstaffel_divisions 5
country_event = {
	id = ss_event.673
	title = ss_event.673.t
	desc = ss_event.673.d
	picture = GFX_event_ss_division_wiking
	
	is_triggered_only = yes
	
	mean_time_to_happen = {
		days = 1
	}
	
	option = {
		name = ss_event.673.a
		hidden_effect = {
			load_oob = "GER_Wiking"	# SS-Division (mot) Wiking 
			#set_country_flag = 
		}
		ai_chance = { factor = 100 }
	}
	
}
# Schutzstaffel_expansion
country_event = {
	id = ss_event.674
	title = ss_event.674.t
	desc = ss_event.674.d
	picture = GFX_news_event_german_inspect_troops

	is_triggered_only = yes
	
	mean_time_to_happen = {
		days = 1
	}
	
	option = {
		name = ss_event.674.a
		hidden_effect = {
			load_oob = "GER_Himmler_HQ"
			#set_country_flag = 
		}
		create_field_marshal = {
			name = "Himmler, Heinrich"	#1936
			picture = "Portrait_Germany_Heinrich_Himmler.dds"
			traits = { Waffen_SS  Mindless_General }
			skill = 1
			#id = 15
		}
		create_corps_commander = {
			name = "Vahl, Herbert-Ernst"	#1943
			picture = "Portrait_Germany_Vahl.dds"
			traits = { Waffen_SS panzer_leader offensive_doctrine_CC }
			skill = 3
			##id = 15
		}
		create_corps_commander = {
			name = "Lippert, Michael"	#1942
			picture = "Portrait_Germany_generic_ss_2.dds"
			traits = { Waffen_SS }
			skill = 2
			#id = 15
		}
		create_corps_commander = {
			name = "Fegelein, Hans Hermann"
			picture = "Portrait_Germany_Hans_Georg_Otto_Hermann_Fegelein.dds"
			traits = { Waffen_SS defensive_doctrine_CC }
			skill = 2
			#id = 15
		}
		create_corps_commander = {
			name = "Dirlewanger, Oskar"	#1944
			picture = "Portrait_Germany_Dirlewanger.dds"
			traits = { Waffen_SS Mindless_General }
			skill = 1
			#id = 15
		}
		create_corps_commander = {
			name = "Gille, Herbert Otto"
			picture = "Portrait_Germany_Herbert_Otto_Wilhelm_Hermann_Gille.dds"
			traits = { Waffen_SS panzer_leader defensive_doctrine_CC }
			skill = 3
			#id = 15
		}
		create_corps_commander = {
			name = "Lammerding, Heinz"	#1942
			picture = "Portrait_Germany_Lammerding.dds"
			traits = { Waffen_SS Competent_General  }
			skill = 2
			#id = 15
		}
		create_corps_commander = {
			name = "Meyer, Kurt"
			picture = "Portrait_Germany_Kurt_Meyer.dds"
			traits = { Waffen_SS panzer_leader defensive_doctrine_CC inspirational_leader}
			skill = 3
			#id = 15
		}
		create_corps_commander = {
			name = "Peiper, Joachim"	#1944
			picture = "Portrait_Germany_Peiper.dds"
			traits = { Waffen_SS panzer_leader gung_ho_general }
			skill = 2
			#id = 15
		}
		create_corps_commander = {
			name = "Priess, Herman"	#1943
			picture = "Portrait_Germany_Priess.dds"
			traits = { Waffen_SS panzer_leader defensive_doctrine_CC }
			skill = 3
			#id = 15
		}
		create_corps_commander = {
			name = "Simon, Max"	#1942
			picture = "Portrait_Germany_Simon.dds"
			traits = { Waffen_SS offensive_doctrine_CC }
			skill = 3
			#id = 15
		}
		create_corps_commander = {
			name = "Skorzeny, Otto"	#1944
			picture = "Portrait_Germany_Skorzeny.dds"
			traits = { Waffen_SS commando_CC gung_ho_general }
			skill = 2
			#id = 15
		}
		create_corps_commander = {
			name = "Witt, Fritz"	#1943
			picture = "Portrait_Germany_Witt.dds"
			traits = { Waffen_SS panzer_leader Competent_General}
			skill = 3
			#id = 15
		}
		ai_chance = { factor = 100 }
	}
}
# SS junkerschulen
country_event = {
	id = ss_event.679
	title = ss_event.679.t
	desc = ss_event.679.d
	picture = GFX_news_event_ss_junkerschulen

	is_triggered_only = yes
	
	mean_time_to_happen = {
		days = 1
	}
	
	option = {
		name = ss_event.679.a
		add_political_power = 150
		create_corps_commander = {
			name = "Mülverstedt, Arthur"	#1939
			picture = "Portrait_Germany_Mulverstedt.dds"
			traits = { Waffen_SS }
			skill = 1
			#id = 15
		}
		create_corps_commander = {
			name = "Bittrich, Wilhelm"	#1940
			picture = "Portrait_Germany_Bittrich.dds"
			traits = { Waffen_SS panzer_leader defensive_doctrine_CC Terrible_General }
			skill = 3
			#id = 15
		}
		create_corps_commander = {
			name = "Kleinheisterkamp, Matthias"	#1941
			picture = "Portrait_Germany_Kleinheisterkamp.dds"
			traits = { Waffen_SS offensive_doctrine_CC }
			skill = 4
			#id = 15
		}
		create_corps_commander = {
			name = "Bach-Zelewski, Erich von dem"	#1941
			picture = "Portrait_Germany_Zelewski.dds"
			traits = { Waffen_SS offensive_doctrine_CC Terrible_General}
			skill = 1
			#id = 15
		}
		create_corps_commander = {
			name = "Baum, Otto"	#1940
			picture = "Portrait_Germany_generic_hans_landa.dds"
			traits = { Waffen_SS offensive_doctrine_CC defensive_doctrine_CC }
			skill = 3
			#id = 15
		}
		create_corps_commander = {
			name = "Wünnenberg, Alfred Bernhard"
			picture = "Portrait_Germany_Alfred_Bernhard_Wernnenberg.dds"
			traits = { Waffen_SS panzer_leader }
			skill = 3
			#id = 54
		}
		
		55  = {
			add_extra_state_shared_building_slots = 2
			add_building_construction = {
				type = arms_factory
				level = 1
				instant_build = yes
			}
		}
		ai_chance = { factor = 100 }
	}
}
# Ahistorical SS Choice # enables buildable units 
country_event = {
	id = ss_event.675
	title = ss_event.675.t
	desc = ss_event.675.d
	picture = GFX_report_event_waffen_ss_ahist

	is_triggered_only = yes
	
	mean_time_to_happen = {
		days = 1
	}
	
	option = {
		name = ss_event.675.a
		
		ai_chance = { factor = 1 }
		hidden_effect = {
			load_oob = "unlock_ss_infantry"
			load_oob = "unlock_ss_garrison"
			load_oob = "GER_SS_Start"
			set_country_flag = SS_Start
			set_technology = { hiddentech_ss_panzer_i = 1 }
			set_technology = { hiddentech_ss_panzer_ii = 1 }
			set_country_flag = ahistorical_ss
		}
	}
}
# GER_LSSAH_division # SS 1 Division (1939)
country_event = {
	id = ss_event.676
	title = ss_event.676.t
	desc = ss_event.676.d
	picture = GFX_event_armor_producer

	is_triggered_only = yes
	
	mean_time_to_happen = {
		days = 1
	}
	
	option = {
		name = ss_event.676.a
		set_country_flag = division_LSSAH_39
		hidden_effect = {
			load_oob = "GER_LSSAH_division"
			
		}
		ai_chance = { factor = 1 }
	}
}
#GER_Das_Reich_division # SS 2 Division (1940)
country_event = {
	id = ss_event.677
	title = ss_event.677.t
	desc = ss_event.677.d
	picture = GFX_event_armor_producer

	is_triggered_only = yes
	
	mean_time_to_happen = {
		days = 1
	}
	
	option = {
		name = ss_event.677.a
		set_country_flag = division_dasreich_40
		hidden_effect = {
			load_oob = "GER_Das_Reich_division"
			
		}
		ai_chance = { factor = 100 }
	}
}
#GER_Totenkopf_division # SS 3 Division (1941)
country_event = {
	id = ss_event.678
	title = ss_event.678.t
	desc = ss_event.678.d
	picture = GFX_report_event_Totenkopf

	is_triggered_only = yes
	
	mean_time_to_happen = {
		days = 1
	}
	
	option = {
		name = ss_event.678.a
		set_country_flag = division_totenkopf_41
		hidden_effect = {
			load_oob = "GER_Totenkopf_division"
		}
		ai_chance = { factor = 100 }
	}
}
# SS-Division (mot) Wiking 
country_event = {
	id = ss_event.680
	title = ss_event.680.t
	desc = ss_event.680.d
	picture = GFX_ss_division_wiking
	
	is_triggered_only = yes
	
	mean_time_to_happen = {
		days = 1
	}
	
	option = {
		name = ss_event.680.a
		set_country_flag = division_wiking_mot
		hidden_effect = {
			load_oob = "GER_Wiking"	# SS-Division (mot) Wiking 
			
		}
		ai_chance = { factor = 100 }
	}
	
}
country_event = {
	id = ss_event.681
	title = ss_event.681.t
	desc = ss_event.681.d
	picture = GFX_event_ger_ss_panzer_iii
	
	fire_only_once = yes
	
	trigger = {
		original_tag = GER
		has_tech = tech_panzer_iii_equipment_1
		not = { has_country_flag = hiddentech_ss_panzer_iii }
		or = {
			has_country_flag = ahistorical_ss
			date > 1940.1.1
		}
	}
	
	mean_time_to_happen = {
		days = 1
	}
	
	option = {
		name = ss_event.681.a
		set_country_flag = hiddentech_ss_panzer_iii
		trigger = {
			has_country_flag = ahistorical_ss
		}
		hidden_effect = {
			set_technology = { hiddentech_ss_panzer_iii = 1 }
			
		}
		ai_chance = { factor = 100 }
	}
	option = {
		name = ss_event.681.b
		set_country_flag = hiddentech_ss_panzer_iii
		trigger = {
			has_country_flag = SS_Start
			date > 1940.7.31
		}
		hidden_effect = {
			set_technology = { hiddentech_ss_panzer_iii = 1 }
			
		}
		ai_chance = { factor = 100 }
	}
}
country_event = {
	id = ss_event.682
	title = ss_event.682.t
	desc = ss_event.682.d
	picture = GFX_...
	
	fire_only_once = yes
	
	trigger = {
		original_tag = GER
		has_tech = tech_panzer_iv_equipment_1
		not = { has_country_flag = hiddentech_ss_panzer_iv }
		or = {
			has_country_flag = ahistorical_ss
			date > 1940.1.1
		}
	}
	
	mean_time_to_happen = {
		days = 1
	}
	
	option = {
		name = ss_event.682.a
		set_country_flag = hiddentech_ss_panzer_iv
		trigger = {
			has_country_flag = ahistorical_ss
		}
		hidden_effect = {
			set_technology = { hiddentech_ss_panzer_iv = 1 }
			
		}
		ai_chance = { factor = 1 }
	}
	option = {
		name = ss_event.682.b
		set_country_flag = hiddentech_ss_panzer_iv
		trigger = {
			has_country_flag = SS_Start
			date > 1943.6.1
		}
		hidden_effect = {
			set_technology = { hiddentech_ss_panzer_iv = 1 }
			
		}
		ai_chance = { factor = 1 }
	}
}
country_event = {
	id = ss_event.683
	title = ss_event.683.t
	desc = ss_event.683.d
	picture = GFX_...
	
	fire_only_once = yes
	
	trigger = {
		original_tag = GER
		has_tech = tech_panzer_v_equipment_1
		not = { has_country_flag = hiddentech_ss_panzer_v }
		or = {
			has_country_flag = ahistorical_ss
			date > 1940.7.31
		}
	}
	
	mean_time_to_happen = {
		days = 1
	}
	
	option = {
		name = ss_event.683.a
		set_country_flag = hiddentech_ss_panzer_v
		trigger = {
			has_country_flag = ahistorical_ss
		}
		hidden_effect = {
			set_technology = { hiddentech_ss_panzer_v = 1 }
			
		}
		ai_chance = { factor = 1 }
	}
	option = {
		name = ss_event.683.b
		set_country_flag = hiddentech_ss_panzer_v
		trigger = {
			has_country_flag = SS_Start
			date > 1943.6.1
		}
		hidden_effect = {
			set_technology = { hiddentech_ss_panzer_v = 1 }
		}
		ai_chance = { factor = 1 }
	}
}
country_event = {
	id = ss_event.684
	title = ss_event.684.t
	desc = ss_event.684.d
	picture = GFX_event_foreign_SS_units_recruitment
	
	fire_only_once = yes
	
	is_triggered_only = yes
	
	mean_time_to_happen = {
		days = 1
	}
	
	option = {
		name = ss_event.684.a
		set_country_flag = focus_foreign_SS_units_yes
		hidden_effect = {
			add_manpower = 500000
		}
		
		ai_chance = { factor = 1 }
	}
	option = {
		name = ss_event.684.b
		set_country_flag = focus_foreign_SS_units_no
		
		ai_chance = { factor = 1 }
	}
}
country_event = {
	id = ss_event.685
	title = ss_event.685.t
	desc = ss_event.685.d
	picture = GFX_event_foreign_SS_units_recruitment
	
	fire_only_once = yes
	
	trigger = {
		date > 1941.9.1
		144 = { is_controlled_by = GER }
		has_country_flag = focus_foreign_SS_units_yes
		
		OR = {
			NOT = { has_country_flag = focus_foreign_SS_units_no }
			NOT = { has_country_flag = ss_division_nord_no }
			NOT = { has_country_flag = ss_division_nord }
		}
	}
	
	mean_time_to_happen = {
		days = 1
	}
	
	option = {
		name = ss_event.685.a
		set_country_flag = ss_division_nord
		
		hidden_effect = {
			load_oob = "GER_Nord"	# SS-Division Nord
		}
		
		ai_chance = { factor = 1 }
	}
	option = {
		name = ss_event.685.b
		set_country_flag = ss_division_nord_no
		
		ai_chance = { factor = 1 }
	}
}
country_event = {
	id = ss_event.686
	title = ss_event.686.t
	desc = ss_event.686.d
	picture = GFX_event_heimwehr_danzig
	
	fire_only_once = yes
	
	trigger = {
		85 = { is_controlled_by = GER }
		has_country_flag = focus_schutzstaffel
		
		OR = {
			NOT = { has_country_flag = ss_danzig_heimwehr_hist }
			NOT = { has_country_flag = ss_danzig_heimwehr_ahist }
			NOT = { has_country_flag = ss_danzig_heimwehr_no }
		}
	}
	
	mean_time_to_happen = {
		days = 1
	}
	
	option = {
		name = ss_event.686.a
		trigger = {
			has_country_flag = SS_Start
		}
		
		set_country_flag = ss_danzig_heimwehr_hist
		
		hidden_effect = {
			load_oob = "GER_SS_Danzig"	# Danzig Heimwehr
		}
		
		ai_chance = { factor = 1 }
	}
	option = {
		name = ss_event.686.b
		trigger = { 
			has_country_flag = ahistorical_ss
		}
		
		set_country_flag = ss_danzig_heimwehr_ahist
		
		hidden_effect = {
			load_oob = "GER_SS_Danzig_ahist"	# Danzig Heimwehr
		}
		
		ai_chance = { factor = 1 }
	}
	option = {
		name = ss_event.686.c
		set_country_flag = ss_danzig_heimwehr_no
		
		ai_chance = { factor = 1 }
	}
}
## EOF ##