ideas = {

	country = {
		patrick = {

			allowed = { always = yes }

			allowed_civil_war = { always = yes }

			removal_cost = -1

			modifier = {
				industrial_capacity_factory = 0.8
			}
		}
		sour_loser = {
			
			allowed = {
				always = no
			}

			allowed_civil_war = {
				always = yes
			}

			removal_cost = -1
			
			modifier = {
				drift_defence_factor = 0.5
			}
			rule = {
				can_create_factions = yes
			}
		}
		general_staff = {
			
			allowed = {
				original_tag = GER
			}

			allowed_civil_war = {
				always = yes
			}

			removal_cost = -1
			
			modifier = {
				army_org_Factor = 0.15
				planning_speed = 0.25
			}
		}
		triumphant_will = {
			
			allowed = {
				always = no
			}
			removal_cost = -1

			allowed_civil_war = {
				has_government = fascism
			}
			
			modifier = {
				political_power_gain = 1
				drift_defence_factor = 0.5
			}
			rule = {
				can_create_factions = yes
			}
		}
		Waffen_SS = {
			
			allowed = {
				always = no
			}
			removal_cost = -1

			allowed_civil_war = {
				has_government = fascism
			}
			
			modifier = {
				political_power_gain = 0.2
				conscription = 0.015
				#enemy_partisan_effect = 0.1
				training_time_army_factor = 0.03
			}
		}
		GER_air_innovations_2_idea = {
			removal_cost = -1
			allowed = {
				always = no # Unlocked via focus
			}

			allowed_civil_war = {
				always = yes
			}

			picture = generic_air_bonus
		
			research_bonus = {
				battlefield_support_tree = 0.10
				jet_technology = 0.10
			}
		}
		GER_rocketry_idea = {
			removal_cost = -1
			allowed = {
				always = no # Unlocked via focus
			}

			allowed_civil_war = {
				always = yes
			}
			
			research_bonus = {
				rocketry = 0.10
			}

			picture = generic_research_bonus
	
			modifier = {
				production_speed_rocket_site_factor = 0.15
			}
		}
		rhineland_challenge_met = {
			
			allowed = {
				always = no
			}

			allowed_civil_war = {
				has_government = fascism
			}

			removal_cost = -1
			
			picture = generic_democratic_drift_bonus

			modifier = {
				unity_factor = -0.10
			}
		}
		GER_Atlantik = {

			allowed = { always = no }
			allowed_civil_war = { has_government = fascism }

			removal_cost = -1

			picture = generic_production_bonus

			modifier = {
				production_speed_coastal_bunker_factor = 0.8
			}
		}
	}
	####
	political_advisor = {
		todt = {
			
			allowed = {
				original_tag = GER
			}
			available = {
				has_completed_focus = GER_west_wall_med
			}
			
			traits = { fortification_engineer }

			ai_will_do = {
				factor = 0.5
			}
		}
		speer = {
			
			allowed = {
				original_tag = GER
			}
			
			traits = { armaments_organizer }
		}
		
		hjalmar_schacht = {
			
			allowed = {
				original_tag = GER
			}
			
			traits = { captain_of_industry }
			ai_will_do = {
				factor = 2
			}
		}
		walther_funk = {
			
			allowed = {
				original_tag = GER
			}
			
			traits = { war_industrialist }

			ai_will_do = {
				factor = 3
			}
		}
		ernst_thalmann = {
			
			allowed = {
				original_tag = GER
			}
			
			traits = { communist_revolutionary }
	
			on_add = {
				country_event = political.1
			}
	
			do_effect = {
				NOT = {
					has_government = communism
				}
			}
			
			ai_will_do = {
				factor = 0
			}
		}
		kurt_schumacher = {
			
			allowed = {
				original_tag = GER
			}
			
			traits = { democratic_reformer }
	
			on_add = {
				country_event = political.13
			}
	
			do_effect = {
				NOT = {
					has_government = democratic
				}
			}
			
			ai_will_do = {
				factor = 0
			}
		}
		joseph_goebbels = {
			
			allowed = {
				original_tag = GER
			}
			
			traits = { fascist_demagogue }
	
			on_add = {
				country_event = political.7
			}
	
			do_effect = {
				NOT = {
					has_government = fascism
				}
			}
			
			ai_will_do = {
				factor = 0
			}
		}
		rudolf_hess = {
			
			allowed = {
				original_tag = GER
			}
			available = {
				NOT = { has_country_flag = flight_of_hess }
			}
			
			traits = { r_hess }
		}
		heinrich_himmler = {
			
			allowed = {
				original_tag = GER
			}
			available = {
				has_completed_focus = GER_Schutzstaffel_focus
			}			
			traits = { prince_of_terror }
		}
		martin_bormann = {
			
			allowed = {
				original_tag = GER
			}
			
			traits = { silent_workhorse }
		}
		joachim_von_ribbentrop = {
			
			allowed = {
				original_tag = GER
			}
			
			traits = { backroom_backstabber }

			ai_will_do = {
				factor = 0
			}
		}
		konstantin_von_neurath = {
			
			allowed = {
				original_tag = GER
			}
			
			traits = { smooth_talking_charmer }
		}
		goering_e = {
			
			allowed = {
				original_tag = GER
			}
			available = {
				has_completed_focus = GER_Goering_Plan
			}			
			traits = { industrial_planner }
			
			ai_will_do = {
				factor = 1
			}
		}
	}
	#### TECHNOLOGY
	tank_manufacturer = { 
		
		designer = yes
		
		porsche = {
			
			allowed = {
				original_tag = GER
			}
			
			research_bonus = {
				armor = 0.10
			}
			
			equipment_bonus = {
				panzer_vi_equipment = {
					maximum_speed = 0.1 reliability = 0.1  instant = yes
				}
			}
			#traits = { porsche_tank_manufacturer }
		}
		henschel = {
			
			allowed = {
				original_tag = GER
			}
			
			research_bonus = {
				armor = 0.10
			}
			
			equipment_bonus = {
				panzer_vi_equipment = {
					armor_value = 0.05 hard_attack = 0.05  instant = yes
				}
			}
			#traits = { henschel_tank_manufacturer }
			
			ai_will_do = {
				factor = 1
			}
		}
		MAN = {
			
			allowed = {
				original_tag = GER
			}
			
			research_bonus = {
				armor = 0.10
			}
			
			equipment_bonus = {
				panzer_v_equipment = {
					armor_value = 0.05 hard_attack = 0.05 instant = yes
				}
			}
			#traits = { MAN_tank_manufacturer }

			ai_will_do = {
				factor = 1
			}
		}
		Alkett = {
			
			allowed = {
				original_tag = GER
			}
			
			research_bonus = {
				armor = 0.10
			}
			
			equipment_bonus = {
				panzer_ii_equipment = {
					build_cost_ic = -0.02 reliability = 0.1  instant = yes
				}
				panzer_iii_equipment  = {
					build_cost_ic = -0.05 soft_attack = 0.1  reliability = 0.1  instant = yes
				}
				panzer_iv_equipment = {
					reliability = 0.1  instant = yes
				}
			}
			#traits = { Alkett_tank_manufacturer }

			ai_will_do = {
				factor = 1
			}
		}
		vomag  = {
			
			allowed = {
				original_tag = GER
			}
			
			research_bonus = {
				armor = 0.10
			}
			
			equipment_bonus = {
				panzer_ii_equipment = {
					soft_attack = 0.1  instant = yes
				}
				panzer_iii_equipment  = {
					build_cost_ic = -0.05  soft_attack = 0.1  instant = yes
				}
				panzer_iv_equipment = {
					soft_attack = 0.1  instant = yes
				}
			}
			#traits = { vomag_tank_manufacturer }

			ai_will_do = {
				factor = 1
			}
		}
		nibelungenwerke  = {
			
			allowed = {
				original_tag = GER
			}
			
			research_bonus = {
				armor = 0.10
			}
			
			equipment_bonus = {
				panzer_ii_equipment = {
					armor_value = 0.05 hard_attack = 0.05  instant = yes
				}
				panzer_iii_equipment  = {
					armor_value = 0.05 hard_attack = 0.05  instant = yes
				}
				panzer_iv_equipment = {
					build_cost_ic = -0.05  armor_value = 0.05 hard_attack = 0.05  instant = yes
				}
			}
			#traits = { nibelungenwerke_tank_manufacturer }

			ai_will_do = {
				factor = 1
			}
		}
		daimler_Benz_AG  = {
			
			allowed = {
				original_tag = GER
			}
			
			research_bonus = {
				armor = 0.10
			}
			
			equipment_bonus = {
				armor = {
					maximum_speed = 0.1 reliability = 0.1 instant = yes
				}
			}
			#traits = { daimler_Benz_AG_tank_manufacturer }

			ai_will_do = {
				factor = 1
			}
		}
		MIAG = {
			
			allowed = {
				original_tag = GER
			}
			
			research_bonus = {
				armor = 0.10
			}
			
			equipment_bonus = {
				panzer_ii_equipment = {
					maximum_speed = 0.05 reliability = 0.05 soft_attack = 0.05 instant = yes
				}
				panzer_iii_equipment  = {
					maximum_speed = 0.05 reliability = 0.05 soft_attack = 0.05 instant = yes
				}
				panzer_iv_equipment  = {
					maximum_speed = 0.05 reliability = 0.05 soft_attack = 0.05 instant = yes
				}
			}
			#traits = { MIAG_tank_manufacturer }

			ai_will_do = {
				factor = 1
			}
		}
		krupp_tank = {
			
			allowed = {
				original_tag = GER
			}
			
			research_bonus = {
				industry = 0.10
			}
			
			equipment_bonus = {
				panzer_ii_equipment = {
					armor_value = 0.05 instant = yes
				}
				panzer_iii_equipment  = {
					armor_value = 0.05 instant = yes
				}
				panzer_iv_equipment  = {
					armor_value = 0.05 instant = yes
				}
				panzer_v_equipment  = {
					armor_value = 0.05  instant = yes
				}
			}
			#traits = { Krupp_tank_manufacturer }
		}
		GER_ckd = {
			
			allowed = {
				original_tag = GER
			}
			available = {
				OR = {
					has_global_flag = end_of_czechoslovakia
					9 = {
						is_owned_and_controlled_by = GER
					}
				}
			}			
			
			research_bonus = {
				armor = 0.10			
			}
			
			equipment_bonus = {
				czech_panzer_equipment_1 = {
					build_cost_ic = -0.05 maximum_speed = 0.05 reliability = 0.1 instant = yes
				}
				czech_panzer_equipment_2  = {
					build_cost_ic = -0.05 maximum_speed = 0.05 reliability = 0.1 instant = yes
				}
			}
			#traits = { ckd_tank_manufacturer }
		}
	}
	####
	naval_manufacturer = { 
		
		designer = yes
		
		germaniawerft = {
			
			allowed = {
				original_tag = GER
			}
			
			research_bonus = {
				naval_equipment = 0.10
			}
			
			equipment_bonus = {
				
			}
			
			traits = { atlantic_fleet_naval_manufacturer }
		}
		
		blohm_und_voss = {
			
			allowed = {
				original_tag = GER
			}
			
			research_bonus = {
				naval_equipment = 0.10
			}
			
			traits = { raiding_fleet_naval_manufacturer }
			
			equipment_bonus = {
				
			}
		}	
	}
	
	aircraft_manufacturer = { 
		
		designer = yes
		
		messerschmitt = {
			
			allowed = {
				original_tag = GER
			}
			
			research_bonus = {
				air_equipment = 0.10
			}
			
			equipment_bonus = {
			}
			
			traits = { messerschmitt_manufacturer }
			
			ai_will_do = {
				factor = 1
			}
		}
		junkers = { 
			allowed = {
				original_tag = GER
			}
			
			research_bonus = {
				air_equipment = 0.10
			}
			
			#traits = { junkers_manufacturer }
			
			equipment_bonus = {
				ju_52_bomber_equipment = {
					reliability = 0.3  instant = yes
				}
				ju_88_bomber_equipment = {
					reliability = 0.2 air_range = 0.1  instant = yes
				}
				ju_87_equipment = {
					air_ground_attack = 0.1 reliability = 0.1  instant = yes
				}
				
			}
			
			ai_will_do = {
				factor = 1
			}
		}
		focke_wulf = {
			
			allowed = {
				original_tag = GER
			}
			
			research_bonus = {
				air_equipment = 0.10
			}
			
			equipment_bonus = {
		
				fw_190_fighter_equipment = {
					air_agility = 0.1 air_ground_attack = 0.1  instant = yes
				}
				fw_190_d_fighter_equipment = {
					air_agility = 0.1 air_ground_attack = 0.1  instant = yes
				}
				ta_152_fighter_equipment = {
					air_agility = 0.1 maximum_speed = 0.1  instant = yes
				}
				fw_200_bomber_equipment  = {
					air_range = 0.15   instant = yes
				}
				fw_200_c8_bomber_equipment  = {
					air_range = 0.15 naval_strike_attack = 0.05  instant = yes
				}
			}
			
			#traits = { focke_wulf_manufacturer }
			
			ai_will_do = {
				factor = 1
			}
		}
		heinkel = {
			
			allowed = {
				original_tag = GER
			}
			
			research_bonus = {
				air_equipment = 0.10
			}
			
			equipment_bonus = {
				he_112_equipment = {
					air_agility = 0.1 maximum_speed = 0.1
				}
				he_100_equipment = {
					air_agility = 0.1 maximum_speed = 0.1  instant = yes
				} 
				he_45_bomber_equipment = {
					reliability = 0.2  instant = yes
				}
				he_46_equipment = {
					air_ground_attack = 0.1 reliability = 0.1  instant = yes
				}
				he_50_equipment = {
					air_ground_attack = 0.1 reliability = 0.1  instant = yes
				}
				he_111_bomber_equipment = {
					air_range = 0.1 air_bombing = 0.1  instant = yes
				}
				he_177_bomber_equipment = {
					air_range = 0.1 air_bombing = 0.1  instant = yes
				}
				wever_bomber_equipment = {
					air_range = 0.3 air_bombing = 0.1  instant = yes
				}
				he_59_bomber_equipment = {
					air_range = 0.1 air_bombing = 0.1  instant = yes
				}
			}
			
			#traits = { heinkel_manufacturer }
			
			ai_will_do = {
				factor = 1
			}
		}
		dornier = {

			allowed = {
				original_tag = GER
			}
			
			research_bonus = {
				air_equipment = 0.10
			}
			
			equipment_bonus = {
				do_17_bomber_equipment = {
					reliability = 0.2  instant = yes
				}
				do_23_bomber_equipment = {
					reliability = 0.2  instant = yes
				}
				do_217_bomber_equipment = {
					reliability = 0.2  instant = yes
				}
				do_217_k_bomber_equipment  = {
					naval_strike_attack = 0.15  instant = yes
				}
				### TODO: how about we boost all carrier plane versions here a bit?
				cv_nav_bomber_equipment = {
					air_range = 0.1 naval_strike_attack = 0.1
				}
			}
			
			#traits = { naval_aircraft_manufacturer }
			
			ai_will_do = {
				factor = 1
			}
		}
		arado = {

			allowed = {
				original_tag = GER
			}
			
			research_bonus = {
				air_equipment = 0.10
			}
			
			equipment_bonus = {
				ar_234_bomber_equipment  = {
					naval_strike_attack = 0.1  instant = yes
				}
				cv_nav_bomber_equipment = {
					air_range = 0.1 naval_strike_attack = 0.1
				}
			}
			
			#traits = { arado_manufacturer }
			
			ai_will_do = {
				factor = 1
			}
		}	
		henschel_aircraft = {

			allowed = {
				original_tag = GER
			}
			
			research_bonus = {
				air_equipment = 0.10
			}
			
			equipment_bonus = {
				hs_123_equipment = {
					air_ground_attack = 0.1 reliability = 0.1  instant = yes
				}
				hs_129_equipment = {
					air_ground_attack = 0.1 reliability = 0.1  instant = yes
				}
				
				cv_nav_bomber_equipment = {
					air_range = 0.1 naval_strike_attack = 0.1
				}
			}
			
			#traits = { henschel_manufacturer }
			
			ai_will_do = {
				factor = 1
			}
		}	
	}
	######
	industrial_concern = {
		
		ig_faben = {
			
			allowed = {
				original_tag = GER
			}
			
			research_bonus = {
				industry = 0.05
				synth_resources = 0.1
			}
			
			traits = { refinery_concern }
			
			ai_will_do = {
				factor = 1
			}
		}
		krupp = {
			
			allowed = {
				original_tag = GER
			}
			
			research_bonus = {
				industry = 0.10
			}
			
			traits = { industrial_concern }
		}
		siemens = {
			
			allowed = {
				original_tag = GER
			}
			
			research_bonus = {
				electronics = 0.10
			}
			
			traits = { electronics_concern }
		}		
	}
	materiel_manufacturer = {
		
		designer = yes
		
		rheinmetall = {
			
			allowed = {
				original_tag = GER
			}
			
			research_bonus = {
				artillery = 0.10
			}
			
			traits = { artillery_manufacturer }
			
			modifier = {
				# +10% arty/at/aa research speed
			}
		}
		mauser = {
			
			allowed = {
				original_tag = GER
			}
			
			research_bonus = {
				infantry_weapons = 0.10
			}
			
			traits = { infantry_equipment_manufacturer }
			
			ai_will_do = {
				factor = 1
			}
		}
		opel = {
			
			allowed = {
				original_tag = GER
			}
			
			research_bonus = {
				motorized_equipment = 0.10
			}
			
			traits = { motorized_equipment_manufacturer }
		}
		Hugo_Boss = {
			
			allowed = {
				original_tag = GER
			}
			
			research_bonus = {
				infantry_uniforms = 0.15
			}
			
			traits = { infantry_equipment_manufacturer }
		}
	}
	######
	theorist = {
		von_braun = {
			
			allowed = {
				original_tag = GER
			}
			
			research_bonus = {
				rocketry = 0.10
			}
			
			traits = { rocket_scientist }
		}
		heisenberg = {

			allowed = {
				original_tag = GER
			}
		
			research_bonus = {
				nuclear = 0.10
			}
			
			traits = { nuclear_scientist }
		}
		heinz_guderian = {

			allowed = {
				original_tag = GER
			}
			
			research_bonus = {
				land_doctrine = 0.07
			}
			
			traits = { blitzkrieg_theorist }
		}
		manstein = {
			
			allowed = {
				original_tag = GER
			}
			
			cost = 250
			
			research_bonus = {
				cat_mobile_warfare = 0.10
			}
			
			traits = { mobile_warfare_expert }
		}
		wolfram_von_richthofen = {
			
			allowed = {
				original_tag = GER
			}
			
			cost = 250
			
			research_bonus = {
				cat_battlefield_support = 0.10
			}
			
			traits = { close_air_support_proponent }
		}
		walther_wever = {
			
			allowed = {
				original_tag = GER
				has_global_flag = wever_alive
			}
			
			research_bonus = {
				air_doctrine = 0.07
			}
			
			traits = { air_warfare_theorist }
		}
		ernst_udet = {
			
			allowed = {
				original_tag = GER
			}
			
			research_bonus = {
				air_doctrine = 0.07
			}
			
			traits = { dive_bomber }
		}
		alfred_saalwachter = {
			
			allowed = {
				original_tag = GER
			}
			
			cost = 250
			
			research_bonus = {
				cat_trade_interdiction = 0.20
			}
			
			traits = { submarine_specialist }
		}
		otto_ciliax = {
			
			allowed = {
				original_tag = GER
			}
			
			research_bonus = {
				naval_doctrine = 0.07
			}
			
			traits = { naval_theorist }
		}
	}
	###### MILITARY 
	##### ARMY
	army_chief = {

		ludwig_beck = {
			
			allowed = {
				original_tag = GER
			}
			
			traits = { army_chief_organizational_2 }			
			
			ai_will_do = {
				factor = 1
			}
		}
		wilhelm_keitel  = {
			
			allowed = {
				original_tag = GER
			}
			
			traits = { army_chief_drill_2 }
			
			ai_will_do = {
				factor = 1
			}
		}
		franz_halder = {
			
			allowed = {
				original_tag = GER
			}
			
			traits = { army_chief_offensive_2 }
			
			ai_will_do = {
				factor = 1
			}
		}
		walther_von_brauchitsch = {
			
			allowed = {
				original_tag = GER
			}
			available = {
				has_completed_focus = GER_Wehrmacht
			}

			traits = { army_chief_maneuver_2 }
			
			ai_will_do = {
				factor = 1
			}
		}
	}
	##### AIRFORCE
	air_chief = {
		
		goering = {
			
			allowed = {
				original_tag = GER
			}

			traits = { air_chief_ground_support_2 }
			
			ai_will_do = {
				factor = 1
			}
		}
		ritter_von_greim = {
			
			allowed = {
				original_tag = GER
			}
			available = {
				has_completed_focus = GER_air_innovation
			}
			
			traits = { air_chief_all_weather_2 }
			
			ai_will_do = {
				factor = 1
			}
		}
		albert_kesselring = {
			
			allowed = {
				original_tag = GER
			}
			
			traits = { air_chief_reform_2 }
			
			ai_will_do = {
				factor = 1
			}
		}
	}
	##### NAVY
	navy_chief = { #CHIEF OF NAVY
		
		raeder = {
			
			allowed = {
				original_tag = GER
			}
			
			traits = { navy_chief_decisive_battle_2 }
			
			ai_will_do = {
				factor = 1
			}
		}
		
		donitz = {
			
			allowed = {
				original_tag = GER
			}
			
			traits = { navy_chief_commerce_raiding_3 }
			
			ai_will_do = {
				factor = 1
			}
		}
	}
	##### STAFF
	high_command = {

		ferdinand_schorner = {
			
			allowed = {
				original_tag = GER
			}
			
			traits = { army_commando_2 }
			
			ai_will_do = {
				factor = 1
			}
		}
		erwin_rommel = {

			allowed = {
				original_tag = GER
			}
			
			available = {
				has_completed_focus = GER_achtung_panzer
			}
			
			traits = { army_armored_3 }
			
			ai_will_do = {
				factor = 1
			}
		}
		gerd_von_rundstedt = {

			allowed = {
				original_tag = GER
			}
			
			traits = { army_regrouping_2 }
			
			ai_will_do = {
				factor = 1
			}
		}
		werner_von_fritsch = {
			
			allowed = {
				original_tag = GER
			}
			
			traits = { army_logistics_2 }
			
			ai_will_do = {
				factor = 1
			}
		}
		hugo_sperrle = {
			
			allowed = {
				original_tag = GER
			}
			available = {
					has_completed_focus = GER_air_innovation
			}
			
			traits = { air_close_air_support_2 }
			
			ai_will_do = {
				factor = 1
			}
		}
		erhard_milch = {
			
			allowed = {
				original_tag = GER
			}
			
			traits = { air_bomber_interception_2 }
			
			ai_will_do = {
				factor = 1
			}
		}
		kurt_student = {
			
			allowed = {
				original_tag = GER
			}
			
			traits = { air_airborne_2 }
			
			ai_will_do = {
				factor = 1
			}
		}
		erich_bey = {
			
			allowed = {
				original_tag = GER
			}
			
			traits = { navy_naval_air_defense_2 }
			
			ai_will_do = {
				factor = 1
			}
		}
		gunther_lutjens = {
			
			allowed = {
				original_tag = GER
			}
			
			traits = { navy_fleet_logistics_2 }
			
			ai_will_do = {
				factor = 1
			}
		}
		viktor_schutze = {
			
			allowed = {
				original_tag = GER
			}
			
			traits = { navy_anti_submarine_1 }
			
			ai_will_do = {
				factor = 1
			}
		}
	}
}
## EOF ##