
state={
	id=542
	name="STATE_542"
	manpower = 234000
	
	state_category = wasteland
	
	resources={
		chromium=210
	}

	history={
		owner = ENG
		buildings = {
			infrastructure = 1
		}
	}

	provinces={
		1580 8214 10525 12940 12963 
	}
}
