state={
	id=545
	name="STATE_545"
	
	state_category = rural
	manpower=4155400
	
	resources={
		chromium=80.000
		tungsten=20.000
	}

	history={
		owner = ENG
		buildings = {
			infrastructure = 3
		}
		victory_points = {
			10929 1 
		}
	}

	provinces={
		697 1846 1874 2151 2216 2255 4851 5199 5221 7842 7872 10538 10594 10929 10930 12504 12677 12908 12986 13173 
	}
	
	buildings_max_level_factor=1.000
}
